distance,12,19,20,25,31,lower, upper
0,0.0,0.0,0.0,0.0,0.0,0.0,0.0,
1,8.130873261833564,8.17461314069357,8.174906727296648,8.174906727296648,8.174912843572095,0.0,9.578900250028706,
2,9.481197181790916,9.509206065702857,9.509547833624898,9.509547833624898,9.509553091496992,0.0,13.411200542829862,
3,10.324533887783991,10.358909208985278,10.359247076887392,10.359247076887392,10.359295342830997,0.0,13.411200542829862,
4,10.991542202984984,10.999272703229064,10.999636357625647,10.999636357625647,10.999636357625647,0.0,13.411200542829862,
5,10.996226625529323,11.003908396565286,11.004317334573736,11.004317334573736,11.004317334573736,0.0,13.411200542829862,
6,11.000863602463218,11.0085421378128,11.008905486014493,11.008905486014493,11.008950903696501,0.0,13.411200542829862,
7,11.005498625687071,10.997408785709478,10.997772501738703,10.997772501738703,10.99781796539659,0.0,13.411200542829862,
8,10.994544101507802,11.00204526440425,11.002454271661392,11.002454271661392,11.002454271661392,0.0,13.411200542829862,
9,10.999181787751306,11.006679790018424,11.007088625063396,11.007088625063396,11.007088625063396,0.0,13.411200542829862,
10,11.003817519388441,11.011312365018076,11.011675621811605,10.995953801285271,11.011721028068228,0.0,13.411200542829862,
11,11.008451298888504,11.000181816679214,11.000545441022458,11.000636345230216,11.000545441022458,0.0,13.411200542829862,
12,10.997454250870971,11.004817127058494,11.005180598245538,11.005271464166615,11.005180598245538,0.0,13.411200542829862,
13,11.00209071040591,11.009450485832614,11.009813804056815,11.00990463173955,11.009813804056815,0.0,13.411200542829862,
14,11.006679790018424,10.998318053229776,10.998681739190383,10.998772658801526,10.998681739190383,0.0,13.411200542829862,
15,10.99572644257759,11.002954148772956,11.00331768149952,11.003408562804529,11.00331768149952,0.0,13.411200542829862,
16,11.000363630353316,11.00758829171949,11.00795167140554,11.008042514452786,11.00795167140554,0.0,13.411200542829862,
17,11.004998864152599,10.996453973895402,10.996817721504708,10.99690865652707,10.996817721504708,0.0,13.411200542829862,
18,11.009586731571718,11.001136304945957,11.001499897741217,11.001590794062466,11.001499897741217,0.0,13.411200542829862,
19,10.99863627910297,11.00577121332258,11.00613465300148,11.00622551104601,11.00613465300148,0.0,13.411200542829862,
20,11.003272240565531,11.01040417060155,11.010767457357366,11.010812867359068,11.010767457357366,0.0,13.411200542829862,
21,11.007860827608605,10.99922724558412,10.999590901483565,10.999681813579882,10.999636357625647,0.0,13.411200542829862,
22,10.99690865652707,11.003908396565286,11.004271897767703,11.004317334573736,11.004271897767703,0.0,13.411200542829862,
23,11.001545345995716,11.0085421378128,11.008860068145111,11.008950903696501,11.008905486014493,0.0,13.411200542829862,
24,11.0061800821175,10.997408785709478,10.997727037892876,10.99781796539659,10.997772501738703,0.0,13.411200542829862,
25,10.995180762497723,11.00204526440425,11.00240882716144,11.00249971597364,11.00240882716144,0.0,13.411200542829862,
26,10.999863635518397,11.006679790018424,11.007043199697183,11.007134050242144,11.007043199697183,0.0,13.411200542829862,
27,11.004453643866196,11.011312365018076,11.01163021536775,11.011721028068228,11.011675621811605,0.0,13.411200542829862,
28,11.009087155618309,11.000136362791144,11.00049998863688,11.000590893220236,11.00049998863688,0.0,13.411200542829862,
29,10.998090743397237,11.004817127058494,11.005135165003654,11.005226031299857,11.005180598245538,0.0,13.411200542829862,
30,11.00272693471941,11.00940507021156,11.00976838993446,11.009859217991846,11.00976838993446,0.0,13.411200542829862,
31,11.007361173323968,10.998272591639108,10.99863627910297,10.998727199089902,10.99863627910297,0.0,13.411200542829862,
32,10.996363035113019,11.002954148772956,11.003272240565531,11.003363122245853,11.00331768149952,0.0,13.411200542829862,
33,11.000999954549586,11.00758829171949,11.007906249600785,11.007997093022873,11.007906249600785,0.0,13.411200542829862,
34,11.005634920348758,11.012175080337217,10.99677225371154,10.996863189109883,10.996817721504708,0.0,13.411200542829862,
35,10.994680531966356,10.985308370728607,11.001454449298965,11.001545345995716,11.001454449298965,0.0,13.411200542829862,
36,10.999363617955359,10.990040946238553,11.006089223697943,11.0061800821175,11.006089223697943,0.0,13.411200542829862,
37,11.003953834872265,10.994726008409668,11.010722047168388,11.010767457357366,11.010722047168388,0.0,13.411200542829862,
38,11.008587556993858,10.999409075036713,10.99954544515363,10.999636357625647,10.999590901483565,0.0,13.411200542829862,
39,10.997590645227708,11.004044710923344,11.00422646077406,11.004317334573736,11.00422646077406,0.0,13.411200542829862,
40,11.002227047284563,11.00867839479381,11.008860068145111,11.008905486014493,11.008860068145111,0.0,13.411200542829862,
41,11.006861496357624,10.997545180630084,10.997727037892876,10.997772501738703,10.997727037892876,0.0,13.411200542829862,
42,10.995862858366323,11.002227047284563,11.002363382473787,11.002454271661392,11.002363382473787,0.0,13.411200542829862,
43,11.00049998863688,11.006861496357624,11.006997774143501,11.007088625063396,11.006997774143501,0.0,13.411200542829862,
44,11.005135165003654,11.011448587719965,11.01163021536775,11.011675621811605,11.01163021536775,0.0,13.411200542829862,
45,11.00976838993446,11.000318177216512,10.984716655426302,10.984807690624356,10.984716655426302,0.0,13.411200542829862,
46,10.998772658801526,11.004953430160437,10.989449485756783,10.989540481748998,10.989449485756783,0.0,13.411200542829862,
47,11.003408562804529,11.009586731571718,10.994180278674714,10.99422575718727,10.994180278674714,0.0,13.411200542829862,
48,11.008042514452786,10.998454436874301,10.998863577661103,10.99890903680906,10.998863577661103,0.0,13.411200542829862,
49,10.997045057650714,11.003090474952934,11.003499443358917,11.003590323162708,11.003499443358917,0.0,13.411200542829862,
50,11.001681689632727,11.007724560507498,11.008133356750362,11.008178777618031,11.008133356750362,0.0,13.411200542829862,
51,11.0063163683405,11.012311292367285,11.012719918348964,11.012810722063646,11.012719918348964,0.0,13.411200542829862,
52,10.995317185056555,10.985444915887568,10.985809028014277,10.985900054160332,10.985854541181583,0.0,13.411200542829862,
53,11.0,10.990177432598621,10.990541387938995,10.9906323748909,10.990586881509104,0.0,13.411200542829862,
54,11.00458995147025,10.994862436611019,10.995271711058349,10.995317185056555,10.995271711058349,0.0,13.411200542829862,
55,11.00922340585384,10.99954544515363,10.99995454536063,11.0,10.99995454536063,0.0,13.411200542829862,
56,10.99822712986052,11.004181023592805,11.00458995147025,11.004635386963077,11.00458995147025,0.0,13.411200542829862,
57,11.002863263714586,11.008814650088356,11.00922340585384,11.009268822224298,11.00922340585384,0.0,13.411200542829862,
58,11.007497444923619,10.9976815738591,10.998090743397237,10.99813620573959,10.998090743397237,0.0,13.411200542829862,
59,10.996499443004579,11.002363382473787,11.00272693471941,11.00281782090388,11.00272693471941,0.0,13.411200542829862,
60,11.001136304945957,11.006997774143501,11.007361173323968,11.007452021244516,11.007361173323968,0.0,13.411200542829862,
61,11.00577121332258,11.01158480873666,11.011948056542948,11.012038866622293,11.011993461676228,0.0,13.411200542829862,
62,10.994816960731997,10.984716655426302,10.985080791691976,10.985126307876483,10.985080791691976,0.0,13.411200542829862,
63,10.999499988635847,10.989449485756783,10.989813465204948,10.989858961788363,10.989813465204948,0.0,13.411200542829862,
64,11.00409014866745,10.994134799974029,10.99449862431207,10.994589578515425,10.994544101507802,0.0,13.411200542829862,
65,11.008723813412706,10.998818118325259,10.999181787751306,10.999272703229064,10.999181787751306,0.0,13.411200542829862,
66,10.997727037892876,11.003454003175548,11.003862958070679,11.003908396565286,11.003862958070679,0.0,13.411200542829862,
67,11.002363382473787,11.008087935695281,11.008451298888504,11.0085421378128,11.008496718444349,0.0,13.411200542829862,
68,11.006997774143501,11.012719918348964,11.013083128715591,11.013128529169176,11.013083128715591,0.0,13.411200542829862,
69,11.01158480873666,10.985809028014277,10.986173128073306,10.986218639732234,10.986173128073306,0.0,13.411200542829862,
70,11.000590893220236,10.990541387938995,10.99090533122727,10.99095082329095,10.99090533122727,0.0,13.411200542829862,
71,11.005226031299857,10.995226236872073,10.995590025096424,10.995680970271918,10.995590025096424,0.0,13.411200542829862,
72,11.009813804056815,10.99990909053343,11.000272723891895,11.000318177216512,11.000272723891895,0.0,13.411200542829862,
73,10.998818118325259,11.004544515789828,11.004907995980703,11.004998864152599,11.004907995980703,0.0,13.411200542829862,
74,11.003454003175548,11.009177989296022,11.00954131651269,11.009586731571718,11.00954131651269,0.0,13.411200542829862,
75,11.008042514452786,11.013764115868835,11.014127291801199,11.014218083913175,11.014127291801199,0.0,13.411200542829862,
76,10.997090524315967,10.986901291993115,10.987219848533112,10.987310862990999,10.987219848533112,0.0,13.411200542829862,
77,11.00172713713624,10.991587692412775,10.99195160105793,10.991997088791463,10.99195160105793,0.0,13.411200542829862,
78,11.006361796706484,10.996317565439805,10.996635849204065,10.99672678573038,10.996635849204065,0.0,13.411200542829862,
79,10.995362658866691,11.00095450404191,11.001318102845676,11.001363551851197,11.001318102845676,0.0,13.411200542829862,
80,11.0,11.005589488982405,11.005952934662224,11.005998364528319,11.005952934662224,0.0,13.411200542829862,
81,11.004635386963077,11.010222522728593,11.010585815477757,11.010631226228584,11.010585815477757,0.0,13.411200542829862,
82,11.009268822224298,11.014808214399377,11.01517135590727,11.01521674775399,11.01517135590727,0.0,13.411200542829862,
83,10.998272591639108,10.98790243859127,10.988266469284406,10.988311972273085,10.988266469284406,0.0,13.411200542829862,
84,11.00290870633761,10.992633897296862,10.99295228771598,10.99304325471341,10.992997771308788,0.0,13.411200542829862,
85,11.007542868415277,10.997317854822603,10.99763610963738,10.997727037892876,10.9976815738591,0.0,13.411200542829862,
86,11.012129675952785,11.001999818214868,11.002317937598422,11.002363382473787,11.002317937598422,0.0,13.411200542829862,
87,11.001136304945957,11.006634362964911,11.00695234840235,11.006997774143501,11.00695234840235,0.0,13.411200542829862,
88,11.005725782518843,11.011221548947237,11.011539401918336,11.01163021536775,11.01158480873666,0.0,13.411200542829862,
89,11.010358758914261,11.015806824740528,11.016124545410696,11.016215321061948,11.016169933329824,0.0,13.411200542829862,
90,10.999363617955359,10.988903493979734,10.989221992479722,10.989312990355675,10.989267491511889,0.0,13.411200542829862,
91,11.003953834872265,11.165482524279907,11.196785252919696,11.196829908505354,11.196785252919696,0.0,13.411200542829862,
92,11.008587556993858,11.50512929088587,11.520373257841952,11.535467047328426,11.535380357838228,0.0,13.411200542829862,
93,10.997590645227708,11.83334272300097,11.848122214089454,11.862714697740985,11.86263039970478,0.0,13.411200542829862,
94,11.002227047284563,12.214253968212713,12.228532209549927,12.242589595342972,12.242548754242312,0.0,13.411200542829862,
95,11.191961400934154,12.581772530132628,12.595554771426306,12.609123680890754,12.60908402700212,0.0,13.411200542829862,
96,11.512297772382366,12.662464215151804,12.641400238897589,12.637483926794921,12.637444361895328,0.0,13.411200542829862,
97,11.82230941906022,12.585825360301166,12.6,12.596070815933038,12.596031120952345,0.0,13.411200542829862,
98,12.199590157050359,12.649110640673518,12.645789813214515,12.641914411986818,12.64187486095318,0.0,13.411200542829862,
99,12.563638008156714,12.590274024023463,12.604364323519057,12.60051586245579,12.600476181478221,0.0,13.411200542829862,
100,12.678012462527397,12.653537054910773,12.632774833741001,12.646303807832547,12.646264270526691,0.0,13.411200542829862,
101,12.54938245492582,12.59464171781,12.608806446289831,12.587454071415712,12.587414349261726,0.0,13.411200542829862,
102,12.681088281373961,12.6405300521774,12.637167404129773,12.650770727509055,12.650691680694775,0.0,13.411200542829862,
103,10.990768853906445,12.59908726852862,12.595753252584776,12.591902159721542,12.591862451599447,0.0,13.411200542829862,
104,7.935779734846475,12.644919928572106,12.641598000252975,12.655117541927455,12.655078032157684,0.0,13.411200542829862,
105,5.918471086353299,10.987310862990999,10.983396560263133,10.99890903680906,10.28819712097314,0.0,13.411200542829862,
106,3.0154220268479834,7.890107730569969,7.884408665207556,7.905871235986582,9.991706560943431,0.0,13.411200542829862,
107,3.999662485760517,4.00650720703208,6.039221804173117,6.067058595398597,6.99331108989154,0.0,13.411200542829862,
108,0.4236071293073335,0.034081960037533054,0.005859377099999624,0.005922609222293836,0.0,0.0,0.0,
109,7.706166362076542,8.031176750638725,8.174906727296648,8.174906727296648,8.174912843572095,0.0,13.411200542829862,
110,9.04981767772147,9.410212537451,9.532612443606421,9.53261768875685,9.532622933904394,0.0,13.411200542829862,
111,9.931948449322519,10.268592892894333,10.380317914206675,10.380317914206675,10.380317914206675,0.0,13.411200542829862,
112,10.73783032087954,11.009450485832614,10.98790243859127,10.98790243859127,10.987947943087462,0.0,13.411200542829862,
113,11.011539401918336,10.998318053229776,10.992633897296862,10.992633897296862,10.992633897296862,0.0,13.411200542829862,
114,11.000545441022458,11.002954148772956,10.997317854822603,10.997317854822603,10.997317854822603,0.0,13.411200542829862,
115,11.005180598245538,11.00758829171949,11.001999818214868,11.001999818214868,11.001999818214868,0.0,13.411200542829862,
116,11.009813804056815,10.996453973895402,11.006634362964911,11.006634362964911,11.006634362964911,0.0,13.411200542829862,
117,10.998818118325259,11.001136304945957,10.995499079168711,10.995499079168711,10.995499079168711,0.0,13.411200542829862,
118,11.003454003175548,11.00577121332258,11.000181816679214,11.000181816679214,11.000181816679214,0.0,13.411200542829862,
119,11.008042514452786,11.01040417060155,11.004817127058494,11.004817127058494,11.004817127058494,0.0,13.411200542829862,
120,11.012629113885566,10.999272703229064,11.009450485832614,11.009450485832614,11.009450485832614,0.0,13.411200542829862,
121,11.001636241941469,11.003908396565286,10.998318053229776,10.998318053229776,10.998318053229776,0.0,13.411200542829862,
122,11.00622551104601,11.0085421378128,11.002954148772956,11.002954148772956,11.002954148772956,0.0,13.411200542829862,
123,11.010858277173492,11.013128529169176,11.00758829171949,11.00758829171949,11.00758829171949,0.0,13.411200542829862,
124,11.015398313270383,11.017713011328622,11.012220484534444,11.012220484534444,11.012220484534444,0.0,13.411200542829862,
125,11.814863520159681,11.810757808032472,11.805718953117594,11.805718953117594,11.805718953117594,0.0,13.411200542829862,
126,12.361067915030642,12.386767132710617,12.382003068970706,12.382003068970706,12.382003068970706,0.0,13.411200542829862,
127,12.702598159431794,12.731182191768367,12.726625632900499,12.726625632900499,12.726625632900499,0.0,16.580000000000002,
128,13.116630664923061,13.131869630787536,13.127490239950665,13.127490239950665,13.12752832790697,0.0,17.881599481030772,
129,13.49985185103896,13.792135440170243,13.788038294115665,13.788038294115665,13.788038294115665,0.0,18.49559947663227,
130,14.010852936206275,14.403784224987543,14.399930555388107,14.399930555388107,14.399930555388107,0.0,21.68849925651842,
131,14.605889223186653,15.046029376549814,15.04240672233004,15.04240672233004,15.04240672233004,0.0,22.351999910522547,
132,15.231907300138088,15.658831374020222,15.655414398858946,15.655414398858946,15.655414398858946,0.0,22.351999910522547,
133,15.83019267096898,15.850488951448785,15.847144853253536,15.847144853253536,15.847144853253536,0.0,22.351999910522547,
134,16.00624877977348,16.006467442880705,16.003155938751583,16.003187182558353,16.003187182558353,0.0,22.351999910522547,
135,15.998562435419002,15.998656193568259,16.00618630405132,16.00618630405132,16.00621754194288,0.0,22.351999910522547,
136,15.024846089061944,16.001687411020125,16.009184863696216,16.009216095736857,16.009216095736857,0.0,22.351999910522547,
137,13.20594563066197,16.004718054373843,16.001374940923046,16.001374940923046,16.001374940923046,0.0,22.351999910522547,
138,11.029007208266753,14.977483099639938,15.993592466985021,15.993592466985021,15.993592466985021,0.0,22.351999910522547,
139,10.986810274142353,13.130384609751536,14.965560463945211,14.965560463945211,14.965560463945211,0.0,22.351999910522547,
140,7.93029633746432,11.028689858727555,13.116706903792583,13.11674502306117,13.11674502306117,0.0,22.351999910522547,
141,6.017433007520732,10.986036591965275,11.012356696002904,11.012356696002904,10.848133480004751,0.0,22.351999910522547,
142,3.0,7.8882887878170385,7.92446212685757,7.92447474600052,7.695810548603701,0.0,22.351999910522547,
143,3.999787494355169,4.002948912989023,5.984972848727051,5.984989557217289,6.989756791190949,0.0,22.351999910522547,
144,0.4236071293073335,0.034053927820443856,0.00577742157021625,0.005844099588473831,0.0,0.0,0.0,
145,7.706166362076542,8.031176750638725,8.174906727296648,8.174906727296648,8.174912843572095,0.0,22.351999910522547,
146,9.145326675411875,13.835244847851445,13.835244847851445,13.835244847851445,13.835244847851445,0.0,22.351999910522547,
147,11.672317679021592,14.444826063334926,14.444895292109251,14.444895292109251,14.444895292109251,0.0,22.351999910522547,
148,14.054323178296421,16.200895037003356,16.20104934873047,16.20104934873047,16.20104934873047,0.0,22.351999910522547,
149,16.58634980940653,16.425681112209624,16.4258637520223,16.4258637520223,16.42589419179364,0.0,22.351999910522547,
150,16.80178561939177,16.646350951484834,16.64653117018678,16.64653117018678,16.646561206447416,0.0,22.351999910522547,
151,17.013435866984658,16.863006849313678,16.863214402954142,16.863214402954142,16.863214402954142,0.0,22.351999910522547,
152,17.92007254449602,17.055526963421563,17.05576148988957,17.05576148988957,17.05576148988957,0.0,22.351999910522547,
153,18.103784134815573,17.887285987538746,17.245173237749746,17.245173237749746,17.245173237749746,0.0,22.351999910522547,
154,18.443264353145295,18.073461206974162,17.43158053648607,17.43158053648607,17.431609220034733,0.0,22.351999910522547,
155,18.81137953473907,18.417274499773306,17.634738444331973,17.634738444331973,17.634738444331973,0.0,22.351999910522547,
156,19.170654657574946,18.789997339009926,17.824842215290435,17.824842215290435,17.824842215290435,0.0,22.351999910522547,
157,19.503999589827725,19.1536158466228,18.002360956274597,18.002388730387977,18.002388730387977,0.0,22.351999910522547,
158,19.830103378449646,19.490895310375045,18.347915412929066,18.347915412929066,18.347915412929066,0.0,22.351999910522547,
159,19.995749548341518,19.820746706418504,18.253574992313148,18.253602384187072,18.253602384187072,0.0,22.351999910522547,
160,19.99717480045619,19.988296575746517,18.340065430635736,18.340092693331734,18.340092693331734,0.0,22.351999910522547,
161,19.99859995099657,19.99837493397901,18.255437546112116,18.255437546112116,18.255437546112116,0.0,22.351999910522547,
162,20.0,19.99974999843748,18.341919201653898,18.341919201653898,18.341919201653898,0.0,22.351999910522547,
163,20.001399951003428,20.001124968361154,18.257272523572627,18.257272523572627,18.257272523572627,0.0,22.351999910522547,
164,20.002799804027436,20.002499843769527,18.343718270841386,18.343718270841386,18.343745528108485,0.0,22.351999910522547,
165,20.004199559092587,20.003849629508817,18.259079933008675,18.259079933008675,18.259079933008675,0.0,22.351999910522547,
166,19.98844666301011,19.99654970238616,18.336057373383188,18.336084642038497,18.336084642038497,0.0,22.351999910522547,
167,19.989922461080234,19.99794989492673,18.261106209646776,18.261106209646776,18.261106209646776,0.0,22.351999910522547,
168,19.991373139431918,19.99932498860899,18.33807514435471,18.338102410009604,18.338102410009604,0.0,22.351999910522547,
169,19.99282371252245,20.00069998775043,18.26310488389091,18.26310488389091,18.26313226147147,0.0,22.351999910522547,
170,19.99427418037474,20.00207489237054,18.330630103736205,18.330630103736205,18.33065738046511,0.0,22.351999910522547,
171,19.995699537650587,20.003424706784585,18.265349709217176,18.265349709217176,18.265349709217176,0.0,22.351999910522547,
172,19.997124793329665,19.996124624536627,18.332839387285322,18.332839387285322,18.33286666072712,0.0,22.351999910522547,
173,19.998549947433688,19.99752484684042,18.267539516858857,18.26756688779324,18.26756688779324,0.0,22.351999910522547,
174,19.9999499999375,19.998899969748337,18.325583210364684,18.325583210364684,18.32561049460563,0.0,22.351999910522547,
175,20.001349954440574,20.0002749981094,18.26978379729766,18.26978379729766,18.26981116486977,0.0,22.351999910522547,
176,20.002749810963493,20.001649931943113,18.32779310228048,18.327820383231607,18.327820383231607,0.0,22.351999910522547,
177,20.004149569526817,20.002999775033743,18.272000437828364,18.272000437828364,18.272000437828364,0.0,22.351999910522547,
178,19.988396634047465,20.00437452158902,18.33000272776848,18.33000272776848,18.33000272776848,0.0,22.351999910522547,
179,19.98987243581109,19.997049782405405,18.264720090929398,18.264720090929398,18.264720090929398,0.0,22.351999910522547,
180,19.99132311779288,19.998449939932843,18.332212086925026,18.332212086925026,18.332239361300083,0.0,22.351999910522547,
181,19.992773694512724,19.999824999234367,18.266909974048705,18.266937345926383,18.266937345926383,0.0,22.351999910522547,
182,19.99419915875602,20.00119996400216,18.334421179846395,18.334421179846395,18.334421179846395,0.0,22.351999910522547,
183,19.99564952683458,20.002549837458222,18.259435916807508,18.259435916807508,18.259463299889184,0.0,22.351999910522547,
184,19.997074786078088,20.003924614934938,18.33643913086726,18.33643913086726,18.336466398954844,0.0,22.351999910522547,
185,19.99847494185494,19.99662471518631,18.261462153945942,18.26148953398928,18.26148953398928,0.0,22.351999910522547,
186,19.99989999975,19.99799989999,18.3384568598342,18.3384568598342,18.3384568598342,0.0,22.351999910522547,
187,20.001299957752746,19.99937499023407,18.26348816628412,18.26348816628412,18.26348816628412,0.0,22.351999910522547,
188,20.002699817774598,20.000749985938025,18.33098469804609,18.331011974247357,18.331011974247357,0.0,22.351999910522547,
189,20.00409957983613,20.00212488712137,18.265705570823155,18.265705570823155,18.265705570823155,0.0,22.351999910522547,
190,19.988346604959602,20.003499693803583,18.333193938864007,18.333221211778362,18.333221211778362,0.0,22.351999910522547,
191,19.989822410416757,19.996174634164404,18.267895335807022,18.267922706208278,18.267922706208278,0.0,22.351999910522547,
192,19.991273096028678,19.997574852966547,18.32593790232849,18.32593790232849,18.325965186041362,0.0,22.351999910522547,
193,19.992698667263507,19.998949972436055,18.27013957253748,18.27013957253748,18.27013957253748,0.0,22.351999910522547,
194,19.99414914418716,20.000349996937555,18.32814775147778,18.32814775147778,18.328175031901022,0.0,22.351999910522547,
195,19.995574510376038,20.00169992775614,18.272356169908686,18.272356169908686,18.272356169908686,0.0,22.351999910522547,
196,19.997024778701455,20.003074763645714,18.320889716386592,18.320889716386592,18.32091700761728,0.0,22.351999910522547,
197,19.998449939932843,19.99577455364008,18.274572498419765,18.274572498419765,18.27459985882044,0.0,22.351999910522547,
198,19.999849999437497,19.99717480045619,18.323100174370058,18.323127462308392,18.323127462308392,0.0,22.351999910522547,
199,20.00124996093994,19.998549947433688,18.267320547907403,18.267320547907403,18.267320547907403,0.0,22.351999910522547,
200,20.002649824460757,19.999924999859374,18.325337650368137,18.325364934974694,18.325364934974694,0.0,22.351999910522547,
201,20.004049590020514,20.001299957752746,18.269537487303833,18.269564855244912,18.269564855244912,0.0,22.351999910522547,
202,19.988296575746517,20.002674821133297,18.019045479713956,18.019045479713956,18.019073228110262,0.0,22.351999910522547,
203,19.989772384897233,20.004024595065864,18.002388730387977,18.002388730387977,18.002388730387977,0.0,22.351999910522547,
204,19.99122307413931,19.988046427802793,18.005027075791915,18.005027075791915,18.00505484579261,0.0,22.351999910522547,
205,19.992673658117866,19.98949724230202,17.998055450520205,17.998055450520205,17.998055450520205,0.0,22.351999910522547,
206,19.994099129493183,19.990922940174624,18.000722207733777,18.000722207733777,18.000722207733777,0.0,22.351999910522547,
207,19.995549504827316,19.992323526793978,18.00336079736225,18.00338856993316,18.00338856993316,0.0,22.351999910522547,
208,19.996974771199767,19.993749023132207,17.99638852659055,17.99638852659055,17.996416309921262,0.0,22.351999910522547,
209,19.99839993599488,19.995149411794852,17.999055530777163,17.999083309991097,17.999083309991097,0.0,22.351999910522547,
210,19.99979999899999,19.99654970238616,18.001722139839845,18.001749914938824,18.001749914938824,0.0,22.351999910522547,
211,20.00119996400216,19.997924892348205,17.994777020013334,17.994777020013334,17.994777020013334,0.0,22.351999910522547,
212,19.985469721775367,19.99932498860899,17.99744426300579,17.997472044706722,17.997472044706722,0.0,22.351999910522547,
213,19.96980220232539,19.983368084484656,17.980878732698244,17.980878732698244,18.000138888353057,0.0,22.351999910522547,
214,19.95419755339713,19.950162906603044,17.866756840568463,17.866756840568463,17.886028066622284,0.0,22.351999910522547,
215,19.938680999504456,19.91705299485845,17.622655872484145,17.622655872484145,17.642108717497464,0.0,22.351999910522547,
216,18.6235334993121,19.884038825148174,17.376420805217627,17.376420805217627,17.396034030778395,0.0,22.351999910522547,
217,18.378819330958123,18.54909701306239,17.127901214100927,17.127901214100927,17.147711217535708,0.0,22.351999910522547,
218,18.13201588351389,18.300983580124868,16.87702580432939,16.877055430376473,16.897041161102734,0.0,22.351999910522547,
219,17.883092573713306,18.050789456419906,16.623687918148608,16.623717995683155,16.643887766985213,0.0,22.074800112345297,
220,17.63195961882853,17.798370711950014,16.367773214460176,16.367773214460176,16.388166462420376,0.0,18.881800761579917,
221,16.096769862304672,16.260073800570524,16.10909680894618,16.10909680894618,16.129724114193646,0.0,17.881599481030772,
222,15.991716605793139,16.00028124752812,15.99184167005164,15.99184167005164,15.990434640746948,0.0,17.881599481030772,
223,16.005530294245176,16.003312157175465,16.005717728361947,16.005748967168017,16.004343160529896,0.0,17.881599481030772,
224,15.997843604686228,15.995499367009458,15.99793736704829,15.99793736704829,15.99653087391138,0.0,17.881599481030772,
225,15.990184489242143,15.998562435419002,15.979330398987312,15.979330398987312,15.999593744842398,0.0,17.104899882782128,
226,14.973710295047116,14.970938514335032,14.993198457967532,14.993231806385173,14.971940422002753,0.0,15.646398946722533,
227,14.971773442047539,14.998266566506944,14.991097358098907,14.991130711190534,14.999266648739864,0.0,15.646398946722533,
228,14.991864460433199,14.996132834834452,14.989029321473755,14.989029321473755,14.997133059355043,0.0,15.646398946722533,
229,14.988962605864357,14.99403214615735,14.986960999482184,14.986960999482184,14.995032510801702,0.0,15.646398946722533,
230,14.99753313048516,14.991064004933072,14.984892392006023,14.984892392006023,14.992931667956071,0.0,15.646398946722533,
231,14.994599027649922,14.99966666296288,14.98282349892703,14.98282349892703,14.99083053069442,0.0,15.646398946722533,
232,14.99169770239515,14.996666296213968,14.98078769624615,14.98078769624615,14.988729098892941,0.0,15.646398946722533,
233,14.9888291737547,14.994565682273027,14.978751616873817,14.978751616873817,14.98666073546739,0.0,15.646398946722533,
234,14.99736643547793,14.991597646681956,14.976715260697187,14.976715260697187,14.984592086540093,0.0,15.646398946722533,
235,14.994465645697415,14.98862902336301,14.974712017264306,14.974712017264306,14.993231806385173,0.0,15.646398946722533,
236,14.991564294629164,14.997233078138114,14.972675111682616,14.972708505811498,14.990263506689933,0.0,15.646398946722533,
237,14.988695740457207,14.994265570543961,14.97070472623116,14.97070472623116,14.98819535501189,0.0,15.646398946722533,
238,14.997233078138114,14.99216462022746,14.9980332043905,14.9980332043905,14.99679965859383,0.0,15.646398946722533,
239,14.982923613233833,14.989196109198117,14.995032510801702,14.995065855140483,14.993798718136775,0.0,15.646398946722533,
240,14.98092119997966,14.997799838643,14.992064567630438,14.992064567630438,14.990863884379712,0.0,15.646398946722533,
241,14.989529679079327,14.994832443211894,14.98912939433108,14.98912939433108,14.999433322629226,0.0,15.646398946722533,
242,14.998066542058012,14.991864460433199,14.99773316204819,14.99773316204819,14.996466250420465,0.0,15.646398946722533,
243,14.995132543595606,14.989763173579496,14.994732408415963,14.994765753422092,14.99433226255841,0.0,15.646398946722533,
244,14.992264672156772,14.998366577731057,14.991764405832956,14.991797757440565,14.991364180754198,0.0,15.646398946722533,
245,14.990230151668786,14.995399294450282,14.9888291737547,14.9888291737547,14.999966666629629,0.0,15.646398946722533,
246,14.998766615958793,14.99243142388852,14.986727461323904,14.986760824140752,14.996966359900926,0.0,15.646398946722533,
247,14.995832754468823,14.990330216509575,14.99536595085295,14.99536595085295,14.99486578799557,0.0,15.646398946722533,
248,14.992931667956071,14.99893329540471,14.992398073690547,14.992398073690547,14.991897811818223,0.0,15.646398946722533,
249,14.990063375449752,14.995932781924571,14.989429608894396,14.989429608894396,14.9889292479483,0.0,15.646398946722533,
250,14.988028556151072,14.992965016967124,14.9980332043905,14.998066542058012,14.99753313048516,0.0,15.646398946722533,
251,14.996566273650778,14.989996664442591,14.995932781924571,14.995932781924571,14.994565682273027,0.0,15.646398946722533,
252,14.993665329064806,14.998599934660568,14.992931667956071,14.992965016967124,14.99246477401231,0.0,15.646398946722533,
253,14.99079717693492,14.9955993544773,14.989996664442591,14.989996664442591,14.989496322425246,0.0,15.646398946722533,
254,14.988762457254435,14.992631523518478,14.998599934660568,14.998599934660568,14.998099879651422,0.0,15.646398946722533,
255,14.99729975695625,14.989696461236298,14.9955993544773,14.9955993544773,14.995132543595606,0.0,15.646398946722533,
256,14.982990355733397,14.998299903655747,14.993498591056058,14.993498591056058,14.99216462022746,0.0,15.646398946722533,
257,14.991564294629164,14.996166176726637,14.990530344187293,14.990530344187293,14.989196109198117,0.0,15.646398946722533,
258,14.989529679079327,14.993198457967532,14.99913330829485,14.99913330829485,14.987127810224345,0.0,15.646398946722533,
259,14.998066542058012,14.991097358098907,14.996999699939986,14.996999699939986,14.995732726345853,0.0,15.646398946722533,
260,14.983724503607238,14.988995963706174,14.99403214615735,14.99403214615735,14.993631981611394,0.0,15.646398946722533,
261,14.946571513226704,14.997599807969273,14.991064004933072,14.991064004933072,14.990663761154808,0.0,15.646398946722533,
262,14.94473151314536,14.994632372952662,14.988095275918152,14.988128635690314,14.999266648739864,0.0,15.646398946722533,
263,14.94295820779808,14.99166435056495,14.986026825012692,14.986060189389338,14.996266201958406,0.0,15.646398946722533,
264,14.941151227398777,14.98956303565918,14.994665718181249,14.994665718181249,14.994165531966091,0.0,15.646398946722533,
265,13.111140301285772,14.928764181940847,14.93385415758437,14.93385415758437,14.933351934512224,0.0,15.646398946722533,
266,11.03136437617759,14.985726542280158,14.932046075471373,14.932046075471373,14.93154379158431,0.0,15.646398946722533,
267,10.989176493259174,13.13974885604744,14.930237774395959,14.930271263443274,14.998299903655747,0.0,15.646398946722533,
268,7.933593133000961,11.039791664700925,13.076620358487126,13.076620358487126,13.153858749431667,0.0,15.646398946722533,
269,3.9973491216054673,10.997090524315967,11.023112083254892,11.023112083254892,10.892795784370513,0.0,15.646398946722533,
270,2.9962943780610076,7.903606771594852,7.939338763398372,7.939351358895763,7.758311672006997,0.0,15.646398946722533,
271,3.9970364021359623,4.032877384696936,6.004548276098711,6.004573257109951,6.994354866604925,0.0,15.646398946722533,
272,0.42331902862970855,0.03433278316711303,0.005859377099999624,0.005861919480852667,0.0,0.0,0.0,
273,7.706153385444647,8.031176750638725,8.174906727296648,8.174906727296648,8.174912843572095,0.0,15.646398946722533,
274,9.145310273577381,9.410212537451,9.532612443606421,9.53261768875685,9.532622933904394,0.0,15.646398946722533,
275,10.018582734099668,10.268592892894333,10.380317914206675,10.380317914206675,10.380317914206675,0.0,15.646398946722533,
276,10.833420512469734,11.056491306015666,11.159883511936853,11.159883511936853,11.159883511936853,0.0,15.646398946722533,
277,11.631551917091718,11.80283864161499,11.70862929637795,11.70862929637795,11.70862929637795,0.0,15.646398946722533,
278,11.558633137183653,13.560235986147143,11.63494735699307,11.63494735699307,11.63494735699307,0.0,15.646398946722533,
279,11.485599679598797,13.980271814238806,11.561185060364704,11.561185060364704,11.561185060364704,0.0,15.646398946722533,
280,11.412493154433873,14.046102662304587,11.487340858527704,11.487340858527704,11.487340858527704,0.0,15.646398946722533,
281,11.444824157670576,14.630891975542708,11.413413161714598,11.413413161714598,11.413413161714598,0.0,15.646398946722533,
282,11.417092449481173,14.275293341994763,11.461195400131698,11.461195400131698,11.461195400131698,0.0,15.646398946722533,
283,11.449366794718387,14.566228063572257,11.41788071403796,11.41788071403796,11.41788071403796,0.0,15.646398946722533,
284,11.42160233942681,14.272245793847583,11.450502172394012,11.450502172394012,11.450502172394012,0.0,15.646398946722533,
285,11.43892477464556,14.578340097555689,11.422390292753965,11.422390292753965,11.422390292753965,0.0,15.646398946722533,
286,11.426154208656559,14.268847185389575,11.56027681329474,11.56027681329474,11.45499890877341,0.0,15.646398946722533,
287,11.44342606040691,14.57501286448832,12.625054455328103,12.62509405905556,11.472227333870263,0.0,15.646398946722533,
288,11.415690955872973,14.265482816925616,12.618557762280126,12.618557762280126,11.801525325143357,0.0,15.646398946722533,
289,11.447969252229848,14.571753497777816,12.629449710893978,12.629449710893978,13.559203516431191,0.0,15.646398946722533,
290,11.56918320366654,14.27788499743572,12.605514666208595,12.605514666208595,13.93212115939278,0.0,15.646398946722533,
291,12.622123434668195,14.568733644349463,12.63388301354734,12.63388301354734,14.200950672402183,0.0,15.646398946722533,
292,12.61570449875868,14.274802975873257,12.609916732476863,12.609916732476863,14.644521159805805,0.0,15.646398946722533,
293,12.626519710514058,14.565747491975824,12.638275198776137,12.638275198776137,14.289121736481917,0.0,15.646398946722533,
294,12.602856818991478,14.271790357204663,12.596864689278837,12.596864689278837,14.54957044039445,0.0,15.646398946722533,
295,12.63099362678962,14.577894223789661,12.642705406676216,12.642705406676216,14.286742105882642,0.0,15.646398946722533,
296,12.607339132426,14.268391640265556,12.60126977728832,12.60130945576689,14.562348711660492,0.0,15.646398946722533,
297,12.618201139623666,14.574566888933612,12.647094527993376,12.647094527993376,14.283977037226013,0.0,15.646398946722533,
298,12.611819852820608,14.265062215076385,12.588208768526203,12.588248488173404,14.5596359844606,0.0,15.646398946722533,
299,12.622678004290531,14.571307422465562,12.651521647612196,12.651521647612196,14.281246444200871,0.0,15.646398946722533,
300,12.616259350536513,14.277429740678118,12.59265659025132,12.59265659025132,14.556991447411104,0.0,15.646398946722533,
301,12.627074087055956,14.568321797653976,12.655868204117803,12.655907711420781,14.973610119139606,0.0,15.646398946722533,
302,12.60341223637472,14.274382648647192,13.05928788257614,13.059326169446875,14.993865412227763,0.0,15.646398946722533,
303,12.63154780697916,14.565335560844453,13.448643054226698,13.448643054226698,14.990897237990794,0.0,15.646398946722533,
304,12.60785469459416,14.271369941249509,13.825085894850709,13.825085894850709,14.99949999166639,0.0,15.646398946722533,
305,12.618755881623196,14.577448336385899,14.018345123444494,14.01838079094729,14.99649959157136,0.0,15.646398946722533,
306,12.612374875494305,14.26797112416478,14.619473314726493,14.619473314726493,14.993531938806147,0.0,15.646398946722533,
307,12.623192939981548,14.574155207078043,14.263590010933433,14.263590010933433,14.990563698540493,0.0,15.646398946722533,
308,12.616814177913536,14.264606549078037,14.584992286593778,14.584992286593778,14.999166643517233,0.0,15.646398946722533,
309,12.627628439259686,14.585952145814822,14.25990883561322,14.25990883561322,14.996166176726637,0.0,15.646398946722533,
310,12.603967629282456,14.292305622257034,14.581392251770747,14.581392251770747,14.993198457967532,0.0,15.646398946722533,
311,12.63210196285638,14.552662986546483,14.25622670975739,14.25622670975739,14.990230151668786,0.0,15.646398946722533,
312,12.608409891814272,14.998699943661784,14.592874973767163,14.592909237023301,14.998833287959433,0.0,15.646398946722533,
313,12.619310599236394,14.995732726345853,14.25222789601682,14.25222789601682,14.995832754468823,0.0,15.646398946722533,
314,12.612890231822364,14.992764921788108,14.589002707519112,14.589002707519112,14.992864969711427,0.0,15.646398946722533,
315,12.623747462619807,14.989796529639753,14.248227959995587,14.248263052035501,14.98992995313854,0.0,15.646398946722533,
316,12.617329352917755,14.998399914657563,14.60017123187259,14.60017123187259,14.998533261622617,0.0,15.646398946722533,
317,12.610947624980447,14.995399294450282,14.243910979783607,14.243910979783607,14.995532668098189,0.0,15.646398946722533,
318,12.621806526801146,14.99243142388852,14.595958344692548,14.595992600710648,14.992564823938563,0.0,15.646398946722533,
319,12.615427063718453,14.989496322425246,14.239627804124657,14.239627804124657,14.9895963921648,0.0,15.646398946722533,
320,12.626242513115294,14.998099879651422,14.606847709208171,14.606847709208171,14.998199891987039,0.0,15.646398946722533,
321,13.026396278326558,14.995099199405118,14.250719280092497,14.250719280092497,14.995232575722191,0.0,15.646398946722533,
322,13.412643289076168,14.992131269435978,14.587528920279816,14.587528920279816,14.992264672156772,0.0,15.646398946722533,
323,13.78618874091023,14.989196109198117,14.97384386188129,14.97384386188129,14.990163441403833,0.0,15.646398946722533,
324,14.05563943760653,14.997799838643,14.994098839210045,14.994098839210045,14.998766615958793,0.0,15.646398946722533,
325,14.120056657110126,14.994799098354068,14.991130711190534,14.991130711190534,14.995766069127646,0.0,15.646398946722533,
326,14.013422137365305,14.99183110897398,14.99973333096292,14.99973333096292,14.992798271170061,0.0,15.646398946722533,
327,13.874617111834114,14.988895889958005,14.996732977552144,14.996732977552144,14.990697115211153,0.0,15.646398946722533,
328,13.523719902452875,14.997499791631938,14.993765370980032,14.993765370980032,14.98776167411265,0.0,15.646398946722533,
329,11.361205921908114,14.994498991296775,14.99079717693492,14.99079717693492,14.926955483285933,0.0,15.646398946722533,
330,11.287958185606465,14.99153094250217,14.99939998799952,14.99939998799952,14.925180065915452,0.0,15.646398946722533,
331,10.32119179164887,13.14633028643355,14.996399567896288,14.996399567896288,14.991997865528129,0.0,15.646398946722533,
332,7.983395267679034,10.98940398747812,13.151729924234301,13.151729924234301,13.146710615207137,0.0,15.646398946722533,
333,4.094789371872502,10.994134799974029,10.995635497778197,10.995635497778197,10.884208744782507,0.0,15.646398946722533,
334,2.9861329508245276,7.899525302193798,7.901354314293215,7.901366970341272,7.746295889003982,0.0,15.646398946722533,
335,4.008416146060686,4.024922359499621,6.061204500757254,6.0612292482630945,6.981095902506999,0.0,15.646398946722533,
336,0.4247587550598575,0.034249379556424084,0.005859377099999624,0.005917575517050881,0.0,0.0,0.0,
337,7.70623124490824,8.031176750638725,8.174906727296648,8.174906727296648,8.174912843572095,0.0,15.646398946722533,
338,9.145375880738856,9.410212537451,9.532612443606421,9.53261768875685,9.532622933904394,0.0,15.646398946722533,
339,10.018632641234033,10.268592892894333,10.380317914206675,10.380317914206675,10.380317914206675,0.0,15.646398946722533,
340,10.849285690772458,11.056491306015666,11.159883511936853,11.159883511936853,11.019391997746519,0.0,15.646398946722533,
341,11.660960509323408,11.80283864161499,11.70862929637795,11.70862929637795,11.797711642517799,0.0,15.646398946722533,
342,14.044927910103347,13.560235986147143,14.016026541070762,14.016062214473793,13.555884331167775,0.0,15.646398946722533,
343,14.638408383427482,13.995963703868341,14.617250083377515,14.617250083377515,13.991854773402988,0.0,15.646398946722533,
344,14.946538060701549,14.537778372227306,14.261346360004023,14.261346360004023,14.579128917737163,0.0,15.646398946722533,
345,14.973743686867357,14.306152522603693,14.582798085415568,14.582798085415568,14.965694103515547,0.0,15.646398946722533,
346,14.971806838187568,14.53602421572006,14.998566598178641,14.998566598178641,14.993065063555218,0.0,15.646398946722533,
347,14.998866623848617,14.982656640262434,14.996466250420465,14.996466250420465,14.990963944990328,0.0,15.646398946722533,
348,15.607209872363478,15.598269134746971,15.61150216987462,15.61150216987462,15.606280786913967,0.0,16.890399640032204,
349,16.00087497607553,15.996437103305222,15.995593143112886,15.995593143112886,16.00421819396374,0.0,17.881599481030772,
350,16.00390577327922,15.999499992187257,15.998656193568259,15.998656193568259,15.996437103305222,0.0,17.881599481030772,
351,16.00693599662346,16.00256229483266,16.001687411020125,16.001687411020125,15.999499992187257,0.0,17.881599481030772,
352,15.99924998242105,16.005561533417065,16.004718054373843,16.004749295131116,16.00253104980584,0.0,17.881599481030772,
353,16.00231233290989,15.997781096139551,15.996937206853067,15.996937206853067,16.005561533417065,0.0,17.881599481030772,
354,16.00534285793341,16.000812479371167,15.999968749969483,16.0,15.997749841774624,0.0,17.881599481030772,
355,15.997656078313472,16.003843288410444,16.003030962914494,16.003030962914494,16.000812479371167,0.0,17.881599481030772,
356,16.000718733856928,15.99606201538366,16.00603011367903,16.00606135187542,16.003843288410444,0.0,17.881599481030772,
357,16.0037808032977,15.99912497607291,15.99821865083735,15.998249904286405,15.99603075765985,0.0,17.881599481030772,
358,16.006811050299806,16.002156104725387,16.00128119870406,16.00128119870406,15.999093724333264,0.0,17.881599481030772,
359,15.999093724333264,16.005186659330157,16.004311918979834,16.004311918979834,16.002156104725387,0.0,17.881599481030772,
360,16.002156104725387,15.997374784632633,16.007342065439847,16.007342065439847,16.00515541942658,0.0,17.881599481030772,
361,15.028672596074477,16.00043749401872,15.999531243133344,15.999531243133344,15.997374784632633,0.0,17.881599481030772,
362,13.210299012512927,15.981833436749366,16.00256229483266,16.00256229483266,16.000406244842658,0.0,17.881599481030772,
363,10.988220966107297,14.995932781924571,15.994749138389135,15.994780398617545,15.981802151196842,0.0,17.881599481030772,
364,10.99290680393498,13.15131172164967,14.966829991684946,14.966829991684946,14.995832754468823,0.0,17.881599481030772,
365,7.9387278577867875,10.995362658866691,13.118155358128673,13.118155358128673,13.15108360554369,0.0,17.881599481030772,
366,4.007505458511567,11.0,11.014036498940795,11.014036498940795,10.889444430272832,0.0,17.881599481030772,
367,2.9731464814233424,7.907686134388491,7.926790018664554,7.9268026341015965,7.753612061484634,0.0,17.881599481030772,
368,3.9988123236781195,4.0408291228410045,5.98804642600573,5.98805477596857,6.9891701939500654,0.0,17.881599481030772,
369,0.4236071293073335,0.03438837012712292,0.00577742157021625,0.005846648612666918,0.0,0.0,0.0,
370,7.706166362076542,8.031176750638725,8.174906727296648,8.174906727296648,8.174912843572095,0.0,17.881599481030772,
371,9.04981767772147,9.410212537451,9.532612443606421,9.53261768875685,9.532622933904394,0.0,17.881599481030772,
372,9.931948449322519,10.268592892894333,10.380317914206675,10.380317914206675,10.380317914206675,0.0,17.881599481030772,
373,10.73783032087954,10.977932410067025,10.98790243859127,10.98790243859127,10.987947943087462,0.0,17.881599481030772,
374,11.011539401918336,10.998454436874301,10.992633897296862,10.992633897296862,10.992633897296862,0.0,17.881599481030772,
375,11.000545441022458,11.003135916637584,10.997317854822603,10.997317854822603,10.997317854822603,0.0,17.881599481030772,
376,11.005180598245538,11.007769983061964,11.001999818214868,11.001999818214868,11.001999818214868,0.0,17.881599481030772,
377,10.978661120555639,10.996635849204065,11.006634362964911,11.006634362964911,11.006634362964911,0.0,17.881599481030772,
378,7.919052973683153,11.001272653652395,10.995499079168711,10.995499079168711,10.995499079168711,0.0,17.881599481030772,
379,5.7876420068971095,11.005952934662224,11.000181816679214,11.000181816679214,11.000181816679214,0.0,17.881599481030772,
380,3.962221599052733,10.994816960731997,10.941709190067153,10.941709190067153,10.925566346876485,0.0,17.881599481030772,
381,3.0073559815891433,7.900480998015247,7.826512633350821,7.826519021889617,7.804037416619682,0.0,17.881599481030772,
382,4.005271526376208,4.026785318340177,6.070378900859484,6.070387137572035,7.044764013080921,0.0,17.881599481030772,
383,0.4241839223733026,0.03427725193185708,0.005859377099999624,0.005927638652954479,0.0,0.0,0.0,
384,7.706198803560676,8.17467430543872,8.174906727296648,8.174906727296648,8.174912843572095,0.0,17.881599481030772,
385,9.145354011737327,13.834775025275981,13.835244847851445,13.835244847851445,13.835244847851445,0.0,17.881599481030772,
386,11.672360515337076,15.579537862208879,15.580051347797285,15.580051347797285,15.580051347797285,0.0,17.881599481030772,
387,14.054358754493213,16.005717728361947,15.992529505991227,15.992529505991227,15.992560770558292,0.0,17.881599481030772,
388,16.58634980940653,16.008747608729422,15.995624401691858,15.995624401691858,16.006436205476845,0.0,17.881599481030772,
389,16.332880946116028,16.00090622433617,15.998687446162576,15.998687446162576,15.99862494091289,0.0,17.881599481030772,
390,16.238934694123255,16.014774428633082,16.00171865769424,16.00171865769424,16.001687411020125,0.0,17.881599481030772,
391,15.992654563892762,16.006904760133985,16.004749295131116,16.004749295131116,16.004718054373843,0.0,17.881599481030772,
392,16.006467442880705,16.00990318521633,15.996937206853067,15.996968462805695,16.00771688905073,0.0,17.881599481030772,
393,15.99874995116806,16.012901048841837,16.0,16.0,15.99990624972534,0.0,17.881599481030772,
394,16.001812397350495,16.00506169934999,16.003062206965264,16.003062206965264,16.013775320017448,0.0,17.881599481030772,
395,16.00484301703706,16.01889509298316,16.00606135187542,16.00606135187542,16.005905160283813,0.0,17.881599481030772,
396,16.007873062964986,16.00018749890138,15.998249904286405,15.998249904286405,16.019737825570054,0.0,17.881599481030772,
397,16.00018749890138,16.014056325615943,16.001312446171408,16.001312446171408,16.0010312167685,0.0,17.881599481030772,
398,16.00321842630413,16.00618630405132,16.004343160529896,16.004343160529896,16.014899312827414,0.0,17.881599481030772,
399,16.438369748852836,16.445972151259408,16.0181771746975,16.0181771746975,16.441046195421993,0.0,17.881599481030772,
400,16.65647021430411,16.666223327436843,16.44423911283219,16.44423911283219,16.661452517712853,0.0,17.881599481030772,
401,18.79726043869159,18.827586143741318,17.88960592075745,17.889633869925902,18.82352251838109,0.0,19.72080120076261,
402,19.1568525598544,19.190310054816727,18.23787268296388,18.23787268296388,19.186349314030537,0.0,22.351999910522547,
403,20.973221021102123,21.02229768602852,18.615101396446917,18.615101396446917,21.018824895792818,0.0,22.351999910522547,
404,21.069954912149196,21.07795056451172,18.98296604853941,18.98296604853941,21.07451067047584,0.0,22.351999910522547,
405,21.430958914616955,21.4426677444762,20.23657579730326,20.23657579730326,21.439333012013222,0.0,22.351999910522547,
406,21.784214468279547,21.78942404011634,20.559255823107996,20.559280143040027,21.79626114727019,0.0,22.351999910522547,
407,22.169348208731805,22.178570738440293,20.783936104597704,20.783936104597704,22.185287917897302,12.461099469950474,25.467300602930024,
408,22.926665697392632,22.943648358532695,21.10374374370576,21.10374374370576,22.950163398111133,17.881599481030772,26.82239922154616,
409,23.41764292152393,23.439475250098923,21.78811602686198,21.788138975139663,23.4458738374154,17.881599481030772,26.82239922154616,
410,23.538967691893372,23.543194345712735,22.17735331368466,22.17735331368466,23.54954351999206,17.881599481030772,26.82239922154616,
411,23.65903632864196,23.645951027607243,22.942515119315058,22.942515119315058,23.652230338807374,17.881599481030772,26.82239922154616,
412,24.121111085520084,24.16673333324138,23.438429981549532,23.438429981549532,24.146138407621205,17.881599481030772,26.82239922154616,
413,24.97374621477523,24.9460016836366,23.54215368227809,23.5421749207672,24.974687185228166,17.881599481030772,26.82239922154616,
414,25.000419996472058,24.986956597392968,23.64491488671507,23.64493603290142,25.00159994880328,17.881599481030772,26.82239922154616,
415,24.999559996127932,24.999939999928,24.16576090256626,24.16578159298805,25.00065999128823,17.881599481030772,26.82239922154616,
416,24.998719967230322,24.999019980791246,24.94511976319216,24.945139807184887,24.999739998647986,17.881599481030772,26.82239922154616,
417,24.99785990840016,24.998099927794513,24.999939999928,24.999939999928,24.998819972150685,17.881599481030772,26.82239922154616,
418,24.990158062725413,24.997199843182436,24.999019980791246,24.999019980791246,24.99789991179259,17.881599481030772,26.82239922154616,
419,24.982493870708744,24.99627972319081,24.998099927794513,24.998099927794513,24.99697981756996,17.881599481030772,26.82239922154616,
420,24.99543958405213,24.995379573033095,24.99717984093406,24.997199843182436,24.996079692623802,17.881599481030772,26.82239922154616,
421,24.98775700218009,24.994479390457407,24.99627972319081,24.99627972319081,24.995179535262395,17.881599481030772,26.82239922154616,
422,24.980092073489242,24.993579175460244,24.995359569328063,24.995379573033095,24.994279345482237,17.881599481030772,26.82239922154616,
423,24.972484858339588,24.992678928038107,24.994459386031938,24.994479390457407,24.99337912327983,17.881599481030772,26.82239922154616,
424,24.999179986551557,24.991798654758725,24.993579175460244,25.000499995000098,24.999419993271843,17.881599481030772,26.82239922154616,
425,24.991478547697014,24.99091835047284,24.99959999679995,24.99957999647194,24.9984999549973,17.881599481030772,26.82239922154616,
426,24.983814760760616,24.990038015177166,24.99867996515016,24.998659964086073,24.997579882860663,17.881599481030772,26.82239922154616,
427,24.97618866040213,24.98915764886844,24.997759899639007,24.997739897838763,24.996659776858188,17.881599481030772,26.82239922154616,
428,24.99599967994879,24.98829726091796,24.996859802783227,24.99681979772627,24.995759640387007,17.881599481030772,26.82239922154616,
429,24.988317270276525,25.00127996723368,24.99593967027445,24.995919667017656,24.994859471499336,17.881599481030772,26.82239922154616,
430,24.980672528977276,25.000359997408037,24.995039507870356,24.99501950389317,24.993959270191667,17.881599481030772,26.82239922154616,
431,24.99361918570418,24.999419993271843,24.99413931304697,24.994119308349315,25.0,17.881599481030772,26.82239922154616,
432,24.985936044102893,24.9984999549973,25.000179999352007,25.000139999608002,24.999059982327335,17.881599481030772,26.82239922154616,
433,24.998859974006816,24.997579882860663,24.99923998844765,24.99921998783162,24.998139930802854,17.881599481030772,26.82239922154616,
434,24.99115843653511,24.99667977952272,24.998319943548207,24.99829994219607,24.997239847631178,17.881599481030772,26.82239922154616,
435,24.983494551403332,24.995759640387007,24.99741986685826,24.99737986269761,24.996319729112123,17.881599481030772,26.82239922154616,
436,24.996419743635286,24.994859471499336,24.996499754965694,24.9964797521571,24.995419580395126,17.881599481030772,26.82239922154616,
437,24.995579609202903,24.993959270191667,24.995599612731837,24.995579609202903,24.994519399260312,17.881599481030772,26.82239922154616,
438,24.994739446531543,24.99307904200681,24.99469943808087,24.994679433831514,24.99361918570418,17.881599481030772,26.82239922154616,
439,24.99391926049214,24.992178776569283,24.99379923100928,24.993779226039425,24.999659997687967,17.881599481030772,26.82239922154616,
440,24.999939999928,24.99129848567297,24.999819999351995,24.999799999199993,24.9987399682464,17.881599481030772,26.82239922154616,
441,24.999079983071375,24.990418163768286,24.998899975798935,24.998879974910874,24.99781990494371,17.881599481030772,26.82239922154616,
442,24.99823993804364,24.989537810851964,24.997979918385404,24.997959916761207,24.996899807776163,17.881599481030772,26.82239922154616,
443,24.99737986269761,24.988677435990883,24.99707982945208,24.997059827107666,24.99599967994879,17.881599481030772,26.82239922154616,
444,24.99653976053486,25.00165994489166,24.996159705042693,24.996139701961983,24.995099519705857,17.881599481030772,26.82239922154616,
445,24.99569963013638,25.000719989632298,24.995259550562782,24.9952395467617,24.994199327043866,17.881599481030772,26.82239922154616,
446,24.994859471499336,24.999799999199993,24.994359363664433,24.994339359142902,25.00021999903201,17.881599481030772,26.82239922154616,
447,24.994039289398582,24.998879974910874,25.000379997112045,25.000359997408037,24.999299990199727,17.881599481030772,26.82239922154616,
448,25.000059999928002,24.997959916761207,24.99945999416787,24.999439993727858,24.9983799475086,17.881599481030772,26.82239922154616,
449,24.999199987199592,24.997039824747247,24.998539957365512,24.99851995618941,24.997459870954888,17.881599481030772,26.82239922154616,
450,24.99835994620447,24.996139701961983,24.997619886701212,24.99759988478894,24.99653976053486,17.881599481030772,26.82239922154616,
451,24.997499874987497,24.9952395467617,24.996719784803766,24.996699782171245,24.99563961974168,17.881599481030772,26.82239922154616,
452,24.996659776858188,24.994339359142902,24.995799647140718,24.995779643771865,24.994739446531543,17.881599481030772,26.82239922154616,
453,24.995819650493562,24.993439139102087,24.994899479693853,24.9948794756046,24.993839240900947,17.881599481030772,26.82239922154616,
454,24.99497949589077,24.992538886635746,24.99399927982715,24.993979275017413,24.999879999712,17.881599481030772,26.82239922154616,
455,24.994159317728613,24.99165860842373,25.000039999968,25.000019999992,24.9989599783671,17.881599481030772,26.82239922154616,
456,24.993339112651594,24.99077829920469,24.999119984511456,24.999099983799418,24.998039923161976,17.881599481030772,26.82239922154616,
457,24.99935999180779,24.989897958975344,24.998199935195334,24.998179933747178,24.997119834092885,17.881599481030772,26.82239922154616,
458,24.9984999549973,24.989017587732416,24.9972798520159,24.997259849831543,24.996219714188783,17.881599481030772,26.82239922154616,
459,24.99765989047775,24.988157194959374,24.99635973496941,24.99633973204877,24.995299558116923,17.881599481030772,26.82239922154616,
460,24.996799795173782,25.001139974009185,24.995459587693123,24.99543958405213,24.99439937265947,17.881599481030772,26.82239922154616,
461,24.995959673515237,25.00021999903201,24.994559407999173,24.99453940363775,24.99351915997425,17.881599481030772,26.82239922154616,
462,24.995139527516145,24.999279989631702,25.000599992800172,25.000579993272154,24.999539995767922,17.881599481030772,26.82239922154616,
463,24.994299350051804,24.99835994620447,24.999659997687967,24.99963999740796,24.9986199619099,17.881599481030772,26.82239922154616,
464,24.99347914957019,24.997459870954888,24.9987399682464,24.998719967230322,24.997699894190266,17.881599481030772,26.82239922154616,
465,24.9994999949999,24.99653976053486,24.99781990494371,24.99779990319148,24.996799795173782,17.881599481030772,26.82239922154616,
466,24.99863996300599,24.99563961974168,24.99691981024862,24.996899807776163,24.99587966045604,17.881599481030772,26.82239922154616,
467,24.99779990319148,24.994739446531543,24.99599967994879,24.995979676740017,24.99497949589077,17.881599481030772,26.82239922154616,
468,24.996939812705072,24.993839240900947,24.995099519705857,24.995079515776702,24.99407929890597,17.881599481030772,26.82239922154616,
469,24.996099695752534,24.992939002846384,24.994199327043866,24.994179322394242,25.000119999712002,17.881599481030772,26.82239922154616,
470,24.995279554347857,24.992058738727387,25.00021999903201,25.00021999903201,24.999199987199592,17.881599481030772,26.82239922154616,
471,24.994439381590457,24.991178443602855,24.999299990199727,24.999279989631702,24.998279940827928,17.881599481030772,26.82239922154616,
472,24.99361918570418,24.990298117469507,24.9983799475086,24.99835994620447,24.997359860593278,17.881599481030772,26.82239922154616,
473,24.99963999740796,24.98941776032407,24.997459870954888,24.997459870954888,24.996439746491898,17.881599481030772,26.82239922154616,
474,24.998779970230547,24.98853737216326,24.996559763295426,24.99653976053486,24.99553960209701,17.881599481030772,26.82239922154616,
475,24.997939915121005,25.00151995379481,24.99563961974168,24.99563961974168,24.994639425284774,17.881599481030772,26.82239922154616,
476,24.99707982945208,25.000599992800172,24.994739446531543,24.994739446531543,24.993739216051686,17.881599481030772,26.82239922154616,
477,24.996239717205466,24.999679997951976,25.00077998783238,25.00075998844835,24.999779999031993,17.881599481030772,26.82239922154616,
478,24.995419580395126,24.9987399682464,24.999839999487996,24.999839999487996,24.998859974006816,17.881599481030772,26.82239922154616,
479,24.99457941234459,24.99783990667994,24.998919976670994,24.998899975798935,24.997939915121005,17.881599481030772,26.82239922154616,
480,24.993759221053562,24.99691981024862,24.9979999199936,24.9979999199936,24.997019822370827,17.881599481030772,26.82239922154616,
481,24.999779999031993,24.99599967994879,24.997099831780485,24.99707982945208,24.996119698865265,17.881599481030772,26.82239922154616,
482,24.998919976670994,24.995099519705857,24.996179708107398,24.996159705042693,24.995199539111503,17.881599481030772,26.82239922154616,
483,24.998079926266335,24.994199327043866,24.995279554347857,24.995259550562782,24.994299350051804,17.881599481030772,26.82239922154616,
484,24.997219845414808,24.99331910731346,24.99437936816996,24.994359363664433,25.000339997688034,17.881599481030772,26.82239922154616,
485,24.99637973787404,24.992418850523453,25.000399996800052,25.000399996800052,24.999419993271843,17.881599481030772,26.82239922154616,
486,24.99553960209701,24.9915385680834,24.999479994591887,24.99945999416787,24.9984999549973,17.881599481030772,26.82239922154616,
487,24.99471944231421,24.99065825463587,24.99855995852561,24.998539957365512,24.997579882860663,17.881599481030772,26.82239922154616,
488,24.993879250728565,24.989777910177594,24.997639888597483,24.997619886701212,24.996659776858188,17.881599481030772,26.82239922154616,
489,24.9998999998,24.988897534705288,24.996739787420278,24.996719784803766,24.995759640387007,17.881599481030772,26.82239922154616,
490,24.999059982327335,24.98803713779856,24.995819650493562,24.995799647140718,24.994859471499336,17.881599481030772,26.82239922154616,
491,24.998199935195334,25.00101997919285,24.994919483767095,24.994899479693853,24.993959270191667,17.881599481030772,26.82239922154616,
492,24.990498194313773,25.0000999998,25.000939982328664,25.000939982328664,24.999979999992,17.881599481030772,26.82239922154616,
493,24.99653976053486,24.999179986551557,25.000019999992,25.0,24.999059982327335,17.881599481030772,26.82239922154616,
494,24.99569963013638,24.998259939443784,24.999099983799418,24.999079983071375,24.998139930802854,17.881599481030772,26.82239922154616,
495,24.9948794756046,24.99733985847294,24.998179933747178,24.998159932283016,24.997219845414808,17.881599481030772,26.82239922154616,
496,24.994039289398582,24.996419743635286,24.997259849831543,24.997239847631178,24.996319729112123,17.881599481030772,26.82239922154616,
497,25.000059999928002,24.99551959852005,24.99635973496941,24.99633973204877,24.995419580395126,17.881599481030772,26.82239922154616,
498,24.99921998783162,24.99461942098739,24.99543958405213,24.99543958405213,24.994519399260312,17.881599481030772,26.82239922154616,
499,24.99835994620447,24.9937192110338,24.99453940363775,24.99453940363775,24.99361918570418,17.881599481030772,26.82239922154616,
500,24.997499874987497,24.992818968655776,25.000579993272154,25.000559993728142,24.999659997687967,17.881599481030772,26.82239922154616,
501,24.996659776858188,24.991938700308946,24.99963999740796,24.99963999740796,24.998719967230322,17.881599481030772,26.82239922154616,
502,24.995819650493562,24.99105840095613,24.998719967230322,24.998719967230322,24.99781990494371,17.881599481030772,26.82239922154616,
503,24.994999499899976,24.990178070594055,24.99779990319148,24.99779990319148,24.996899807776163,17.881599481030772,26.82239922154616,
504,24.994159317728613,24.989297709219443,24.996899807776163,24.9968798052877,24.99599967994879,17.881599481030772,26.82239922154616,
505,24.993339112651594,24.995359569328063,24.995979676740017,24.995979676740017,24.995079515776702,17.881599481030772,26.82239922154616,
506,24.985655884927255,24.994459386031938,24.995079515776702,24.995059511831535,24.994179322394242,17.881599481030772,26.82239922154616,
507,24.99857995966971,24.99355917031426,25.001099975801065,25.001099975801065,25.00021999903201,17.881599481030772,26.82239922154616,
508,24.997719896022517,24.99959999679995,25.000179999352007,25.000159999488005,24.999299990199727,17.881599481030772,26.82239922154616,
509,24.9968798052877,24.99867996515016,24.999259989047676,24.99923998844765,24.9983799475086,17.881599481030772,26.82239922154616,
510,24.996039686318312,24.997759899639007,24.99833994488434,24.998319943548207,24.997459870954888,17.881599481030772,26.82239922154616,
511,24.988357288945586,24.99683980026275,24.99741986685826,24.997399864785937,24.99653976053486,17.881599481030772,26.82239922154616,
512,25.0012599682496,24.99593967027445,24.996499754965694,24.996499754965694,24.99563961974168,17.881599481030772,26.82239922154616,
513,24.993539165152264,24.995039507870356,24.995599612731837,24.995579609202903,24.994739446531543,17.881599481030772,26.82239922154616,
514,24.99957999647194,24.99413931304697,24.99469943808087,25.0016199475154,24.993839240900947,17.881599481030772,26.82239922154616,
515,24.998719967230322,24.993239085800784,25.000719989632298,25.00067999075225,24.999879999712,17.881599481030772,26.82239922154616,
516,24.997879910104377,24.99235883225111,24.999799999199993,24.99975999884799,24.998939977527048,17.881599481030772,26.82239922154616,
517,24.997019822370827,24.99145854086952,24.998879974910874,24.998839973086753,24.998039923161976,17.881599481030772,26.82239922154616,
518,24.996179708107398,24.990578224602967,24.997959916761207,24.9979199134648,24.997119834092885,17.881599481030772,26.82239922154616,
519,24.995359569328063,24.98969787732537,24.997039824747247,24.9969998199784,24.996199711156095,17.881599481030772,26.82239922154616,
520,24.994519399260312,24.995759640387007,24.996139701961983,24.996099695752534,24.995299558116923,17.881599481030772,26.82239922154616,
521,25.000539994168125,24.994859471499336,25.00215990669606,25.00211991011962,24.99439937265947,17.881599481030772,26.82239922154616,
522,24.98597606658583,24.973165598297705,24.994299350051804,24.99425934089666,24.993499154780228,17.881599481030772,26.82239922154616,
523,24.964614957976018,24.951573096700738,24.972604990268835,24.97256494635663,24.971824122398427,17.881599481030772,26.82239922154616,
524,24.768730286391346,24.739179452843622,24.774523204291945,24.788747447178526,24.75948303175977,17.881599481030772,26.82239922154616,
525,23.99635388970583,23.98472430527397,23.993499119553196,23.981075872445757,23.97834439655916,6.788700170135664,25.435799574615302,
526,22.92441929471715,22.89973798976748,22.90888473933203,22.895829314528008,22.892968352749715,0.0,23.83929948635236,
527,21.794471776117906,21.755229256433957,21.764834021880343,21.75102296444928,21.74798841272452,0.0,22.351999910522547,
528,20.595679158503124,21.64280480898906,20.55001216544652,21.638576662987795,21.63552633979585,0.0,22.351999910522547,
529,20.577439102084593,21.530327447579612,20.52330382760047,21.526100436446914,21.52305740363111,0.0,22.351999910522547,
530,20.550961048087263,21.417866373661035,20.496682658420607,21.413617162917618,21.410581496073384,0.0,22.351999910522547,
531,20.52459500209444,20.26309453168494,20.470173423789063,20.258553748972307,20.255344973611287,0.0,22.351999910522547,
532,20.49831700408597,20.237465256301245,20.44375210180362,20.232943433914897,20.22975531241048,0.0,22.351999910522547,
533,20.472127393116722,20.21195190969937,20.417443522635246,20.20742437818338,20.204256977181814,0.0,22.351999910522547,
534,20.44605096345013,20.186530162462294,20.39124812266282,20.173447895687044,20.170275159253528,0.0,22.351999910522547,
535,20.420063662976176,20.152617695971905,20.36511723511554,20.13956305385,20.136409809099536,0.0,22.351999910522547,
536,20.394165832413936,20.11879718074617,20.339124858262707,20.105820052910055,20.102661515331747,0.0,22.351999910522547,
537,20.368382360904363,20.08511886945158,20.31319768032596,20.07216978804235,20.069030868479924,0.0,22.351999910522547,
538,20.34268910444241,20.051558542916307,20.2873852430519,20.038637678245497,20.035518460973254,0.0,22.351999910522547,
539,20.317086405289515,20.018091817153802,20.261663307833345,20.005224317662623,20.00212488712137,0.0,22.351999910522547,
540,20.291574606225115,20.00207489237054,20.23605692816661,19.997924892348205,20.003474698161817,0.0,22.351999910522547,
541,20.26617872219625,20.003424706784585,20.210541803722137,19.99929998774957,19.996174634164404,0.0,22.351999910522547,
542,20.240874487037363,19.996124624536627,20.176521008340362,20.00067498860976,19.997574852966547,0.0,22.351999910522547,
543,20.215662244903083,19.99752484684042,20.142641336229964,20.002049894948268,19.998949972436055,0.0,22.351999910522547,
544,20.19054234041275,19.998899969748337,20.108878636065214,20.00339971104912,20.000324997359417,0.0,22.351999910522547,
545,20.15703351190348,20.0002749981094,20.075233498019394,20.004749436071425,20.00169992775614,0.0,22.351999910522547,
546,20.123617964968425,20.001649931943113,20.041681566176027,19.99744983741677,20.00304976747296,0.0,22.351999910522547,
547,20.090345940276887,20.00302477126897,20.008248299139034,19.998824965482346,20.00442451059265,0.0,22.351999910522547,
548,20.057168294652165,20.00437452158902,20.000924978610364,20.00019999900001,20.00577416647504,0.0,22.351999910522547,
549,20.02408549722059,20.005724180843842,20.002299867765206,20.001574937989258,20.00709874019719,0.0,22.351999910522547,
550,20.008273288817303,20.00707374905186,20.00364966699827,20.002949782469585,20.008448215691292,0.0,22.351999910522547,
551,20.009622685098286,20.00839823674049,20.005024368892933,20.00429953784936,20.00977261240117,0.0,22.351999910522547,
552,20.010971990385674,20.00972263675836,20.084098187372017,20.08337621018936,20.08880285133985,0.0,22.351999910522547,
553,20.2166515526187,20.200470291555096,20.273776165283074,20.273085606290916,20.278412166636716,0.0,22.351999910522547,
554,20.46948949045872,20.439349304711243,20.587277624785653,20.544512649366983,20.549744523959415,0.0,22.351999910522547,
555,20.69318728470798,20.732824216685966,20.778209740013693,20.736031442877394,20.74121500780511,0.0,22.351999910522547,
556,20.888824763494952,20.913392838083446,20.961870145576228,21.023914954165885,20.987782160104484,0.0,22.351999910522547,
557,21.25379966029604,21.281776241658026,21.32918188773306,21.389857409529405,21.35453113510105,0.0,22.351999910522547,
558,21.61083061800263,21.642042417479917,22.584950741588965,22.64197429554234,22.608759364458724,9.79110004034276,24.799800402422594,
559,22.498555509187696,22.480324730750667,23.119191162322267,23.01258351424281,23.104112188093268,17.881599481030772,26.82239922154616,
560,23.180811029815157,23.221304872896354,23.619801015249895,23.506658631119823,23.595804711855028,17.881599481030772,26.82239922154616,
561,23.674458811132304,23.65434420989092,24.194772162597438,23.609743751256598,23.61681604281153,17.881599481030772,26.82239922154616,
562,23.694809558213375,24.14816763234842,24.924626376337116,23.63065805262308,24.191878802606464,17.881599481030772,26.82239922154616,
563,23.715058507201707,24.96042868221618,24.993439139102087,24.17862692544802,24.921817750717942,17.881599481030772,26.82239922154616,
564,23.735184852871907,24.987436843341897,24.999479994591887,24.941371253401446,24.99065825463587,17.881599481030772,26.82239922154616,
565,23.755188906847277,25.000419996472058,24.99855995852561,24.996199711156095,24.996699782171245,17.881599481030772,26.82239922154616,
566,23.77507097781203,24.9994999949999,24.997639888597483,24.995299558116923,24.995799647140718,17.881599481030772,26.82239922154616,
567,23.79485238449695,24.99857995966971,24.996719784803766,25.00131996515384,24.994899479693853,17.881599481030772,26.82239922154616,
568,23.81451238215891,24.99765989047775,24.995819650493562,25.000399996800052,24.99399927982715,17.881599481030772,26.82239922154616,
569,23.834051271237964,24.996739787420278,24.994919483767095,24.99945999416787,25.000019999992,17.881599481030772,26.82239922154616,
570,23.83912750081261,24.995839653830394,25.000939982328664,24.998539957365512,24.999099983799418,17.881599481030772,26.82239922154616,
571,23.858520490592035,24.99493948782433,25.000019999992,24.997619886701212,24.998179933747178,17.881599481030772,26.82239922154616,
572,23.863465800256257,24.994039289398582,24.999079983071375,24.996719784803766,24.997259849831543,17.881599481030772,26.82239922154616,
573,23.868368188881284,24.993139058549648,24.998159932283016,24.995819650493562,24.99635973496941,17.881599481030772,26.82239922154616,
574,23.873269570798215,24.999179986551557,24.997259849831543,24.994899479693853,24.995459587693123,17.881599481030772,26.82239922154616,
575,23.878128067333922,24.998259939443784,24.99633973204877,25.000939982328664,24.994559407999173,17.881599481030772,26.82239922154616,
576,23.88296464009441,24.99733985847294,24.99543958405213,25.0,25.000579993272154,17.881599481030772,26.82239922154616,
577,23.887779302396446,24.996439746491898,24.99453940363775,24.999079983071375,24.999659997687967,17.881599481030772,26.82239922154616,
578,23.892572067485744,24.99551959852005,25.000559993728142,24.998159932283016,24.9987399682464,17.881599481030772,26.82239922154616,
579,23.897322025699868,24.99461942098739,24.99963999740796,24.997239847631178,24.99781990494371,17.881599481030772,26.82239922154616,
580,23.916396049572352,24.9937192110338,24.998719967230322,24.99633973204877,24.996899807776163,17.881599481030772,26.82239922154616,
581,24.9936992059999,24.99975999884799,24.99779990319148,24.99543958405213,24.99599967994879,17.881599481030772,26.82239922154616,
582,24.986016089004668,24.998839973086753,24.9968798052877,25.00145995737049,24.995079515776702,17.881599481030772,26.82239922154616,
583,24.998939977527048,24.9979199134648,24.995979676740017,25.00051999459211,24.994199327043866,17.881599481030772,26.82239922154616,
584,24.998099927794513,24.9969998199784,24.995079515776702,24.99959999679995,25.00021999903201,17.881599481030772,26.82239922154616,
585,24.99039815609187,24.996099695752534,25.001099975801065,24.99867996515016,24.999299990199727,17.881599481030772,26.82239922154616,
586,24.996439746491898,24.995199539111503,25.000159999488005,24.997759899639007,24.9983799475086,17.881599481030772,26.82239922154616,
587,24.988737463105256,24.994299350051804,24.99923998844765,24.99683980026275,24.997459870954888,17.881599481030772,26.82239922154616,
588,24.981092850393875,24.993399128569926,24.998319943548207,24.99593967027445,24.99653976053486,17.881599481030772,26.82239922154616,
589,24.97346591885075,24.999439993727858,24.997399864785937,24.995039507870356,24.99563961974168,17.881599481030772,26.82239922154616,
590,25.000159999488005,24.99851995618941,24.996499754965694,25.001059977528953,24.994739446531543,17.881599481030772,26.82239922154616,
591,24.992458862624943,24.99759988478894,24.995599612731837,25.000139999608002,25.00075998844835,17.881599481030772,26.82239922154616,
592,24.984775364209302,24.99667977952272,25.0016199475154,24.999199987199592,24.999839999487996,17.881599481030772,26.82239922154616,
593,24.997699894190266,24.995779643771865,25.00067999075225,24.998279940827928,24.998919976670994,17.881599481030772,26.82239922154616,
594,24.9899979991996,24.9948794756046,24.99975999884799,24.99737986269761,24.9979999199936,17.881599481030772,26.82239922154616,
595,24.9823537722129,24.993979275017413,24.998839973086753,24.996459749332505,24.99707982945208,17.881599481030772,26.82239922154616,
596,24.97472722573762,25.0,24.9979199134648,24.995559605657963,24.996179708107398,17.881599481030772,26.82239922154616,
597,24.98769697271039,24.999079983071375,24.9969998199784,25.001579950075154,24.995279554347857,17.881599481030772,26.82239922154616,
598,25.00061999231219,24.998159932283016,24.996099695752534,25.00063999180821,24.99437936816996,17.881599481030772,26.82239922154616,
599,24.99289899151357,24.997239847631178,25.00211991011962,24.99971999843198,25.000399996800052,17.881599481030772,26.82239922154616,
600,24.985215628447154,24.99633973204877,25.001179972153313,24.99879997119862,24.999479994591887,17.881599481030772,26.82239922154616,
601,24.998139930802854,24.99543958405213,25.00023999884801,24.997879910104377,24.99855995852561,17.881599481030772,26.82239922154616,
602,24.99043817142869,24.99453940363775,24.999319990751747,24.99695981514552,24.997639888597483,17.881599481030772,26.82239922154616,
603,24.9964797521571,24.993639190802128,24.998399948796724,24.99605968947906,24.996719784803766,17.881599481030772,26.82239922154616,
604,24.99563961974168,24.999659997687967,24.997479872979195,25.0020799134792,24.995819650493562,17.881599481030772,26.82239922154616,
605,24.994819463240777,24.9987399682464,24.996579766039993,25.001139974009185,24.994919483767095,17.881599481030772,26.82239922154616,
606,24.993979275017413,24.99781990494371,24.99565962322259,25.00021999903201,25.000939982328664,17.881599481030772,26.82239922154616,
607,25.0,24.99691981024862,25.00169994220393,24.999299990199727,25.000019999992,17.881599481030772,26.82239922154616,
608,24.999159985887527,24.99599967994879,25.00075998844835,24.9983799475086,24.999079983071375,17.881599481030772,26.82239922154616,
609,24.99829994219607,24.995099519705857,24.999839999487996,24.997459870954888,24.998179933747178,17.881599481030772,26.82239922154616,
610,24.997459870954888,24.994199327043866,24.998899975798935,24.99653976053486,24.997259849831543,17.881599481030772,26.82239922154616,
611,24.996619771481104,25.00023999884801,24.9979999199936,25.00255986894142,24.99633973204877,17.881599481030772,26.82239922154616,
612,24.995779643771865,24.999299990199727,24.99707982945208,25.0016199475154,24.99543958405213,17.881599481030772,26.82239922154616,
613,24.99493948782433,24.9983799475086,24.996159705042693,25.000699990200275,25.00145995737049,17.881599481030772,26.82239922154616,
614,24.99409930363565,24.997479872979195,25.00217990496029,24.99975999884799,25.000539994168125,17.881599481030772,26.82239922154616,
615,25.000139999608002,24.996559763295426,25.0012599682496,24.998839973086753,24.99959999679995,17.881599481030772,26.82239922154616,
616,24.999279989631702,24.99565962322259,25.000319997952026,24.9979199134648,24.99867996515016,17.881599481030772,26.82239922154616,
617,24.998419950068847,24.994759450732868,24.999399992799827,24.997019822370827,24.997759899639007,17.881599481030772,26.82239922154616,
618,24.997579882860663,24.99385924582276,24.99847995378919,24.996099695752534,24.996859802783227,17.881599481030772,26.82239922154616,
619,24.996719784803766,24.999879999712,24.997559880916377,25.00211991011962,24.99593967027445,17.881599481030772,26.82239922154616,
620,24.99587966045604,24.9989599783671,24.99663977417765,25.001179972153313,25.001959923174024,17.881599481030772,26.82239922154616,
621,24.995059511831535,24.998039923161976,24.99573963698614,25.000259998648016,25.0010399783689,17.881599481030772,26.82239922154616,
622,24.994219331677474,24.99713983638928,25.00175993805236,24.99933999128777,25.0000999998,17.881599481030772,26.82239922154616,
623,24.993399128569926,24.996219714188783,25.000839985888476,24.998419950068847,24.999179986551557,17.881599481030772,26.82239922154616,
624,24.999419993271843,24.995319561869977,24.9998999998,24.997499874987497,24.998259939443784,17.881599481030772,26.82239922154616,
625,24.99855995852561,24.994419377132967,24.99897997919115,24.996579766039993,24.99733985847294,17.881599481030772,26.82239922154616,
626,24.997719896022517,25.00043999612807,24.99805992472216,25.00259986481406,24.996439746491898,17.881599481030772,26.82239922154616,
627,24.9968798052877,24.99951999539191,24.99713983638928,25.00165994489166,24.99551959852005,17.881599481030772,26.82239922154616,
628,24.996039686318312,24.998599960797804,24.996239717205466,25.000739989048324,25.001559951331036,17.881599481030772,26.82239922154616,
629,24.995199539111503,24.99767989234201,25.002259897857236,24.999799999199993,25.00061999231219,17.881599481030772,26.82239922154616,
630,24.99437936816996,24.996759790020786,25.00131996515384,24.998879974910874,24.99969999819998,17.881599481030772,26.82239922154616,
631,24.993539165152264,24.99585965715122,25.000399996800052,24.997959916761207,24.998779970230547,17.881599481030772,26.82239922154616,
632,24.999559996127932,24.994959491865554,24.99945999416787,24.997059827107666,24.99785990840016,17.881599481030772,26.82239922154616,
633,24.998719967230322,24.994059294160284,24.998539957365512,24.996139701961983,24.996939812705072,17.881599481030772,26.82239922154616,
634,24.99785990840016,25.0000999998,24.997619886701212,25.00215990669606,24.996039686318312,17.881599481030772,26.82239922154616,
635,24.997019822370827,24.999159985887527,24.996719784803766,25.001239969249525,25.002059915134993,17.881599481030772,26.82239922154616,
636,24.996179708107398,24.99823993804364,25.002739849864454,25.00029999820002,25.001119974913124,17.881599481030772,26.82239922154616,
637,24.995339565607026,24.99733985847294,25.001799935204666,24.99937999231181,25.000199999200007,17.881599481030772,26.82239922154616,
638,24.994499394866864,24.996419743635286,25.00085998520851,24.998459952565078,24.999259989047676,17.881599481030772,26.82239922154616,
639,24.993679200949988,24.99551959852005,24.999939999928,24.997539878956086,24.99833994488434,17.881599481030772,26.82239922154616,
640,24.99969999819998,24.99461942098739,24.9989999799992,25.003559746564086,24.997439868914576,17.881599481030772,26.82239922154616,
641,24.998839973086753,24.9937192110338,24.998099927794513,25.002619862726384,24.99651975775828,17.881599481030772,26.82239922154616,
642,24.9979999199936,24.999739998647986,24.99717984093406,25.001679943555793,24.995619616244763,17.881599481030772,26.82239922154616,
643,24.99715983866967,24.998819972150685,25.00319979522621,25.000739989048324,25.00163994621153,17.881599481030772,26.82239922154616,
644,24.996319729112123,24.99789991179259,25.002259897857236,24.999819999351995,25.000699990200275,17.881599481030772,26.82239922154616,
645,24.99547959131811,24.9969998199784,25.00131996515384,24.998899975798935,24.999779999031993,17.881599481030772,26.82239922154616,
646,24.994639425284774,24.996079692623802,25.000379997112045,24.997979918385404,24.998859974006816,17.881599481030772,26.82239922154616,
647,24.99379923100928,24.995179535262395,24.99945999416787,24.997059827107666,24.997939915121005,17.881599481030772,26.82239922154616,
648,24.999839999487996,24.994279345482237,24.998539957365512,25.00307981029537,24.997019822370827,17.881599481030772,26.82239922154616,
649,24.99897997919115,25.000319997952026,24.997619886701212,25.002139908415838,25.003039815190473,17.881599481030772,26.82239922154616,
650,24.998119929306682,24.99937999231181,24.996699782171245,25.00119997120138,25.00209991180741,17.881599481030772,26.82239922154616,
651,24.9972798520159,24.998459952565078,25.002719852048095,25.000279998432017,25.001159973089248,17.881599481030772,26.82239922154616,
652,24.996439746491898,24.997559880916377,25.001779936636513,24.99933999128777,25.00023999884801,17.881599481030772,26.82239922154616,
653,24.995599612731837,24.99663977417765,25.00085998520851,24.998419950068847,24.999319990751747,17.881599481030772,26.82239922154616,
654,24.994759450732868,24.99573963698614,24.999919999872,24.997499874987497,24.9983799475086,17.881599481030772,26.82239922154616,
655,24.99393926534991,24.994819463240777,24.9989999799992,25.003519752226886,24.997479872979195,17.881599481030772,26.82239922154616,
656,24.999959999968002,24.99393926534991,24.998079926266335,25.00257986688574,24.996559763295426,17.881599481030772,26.82239922154616,
657,24.999099983799418,24.999959999968002,24.99717984093406,25.00163994621153,25.00257986688574,17.881599481030772,26.82239922154616,
658,24.998259939443784,24.999039981567293,25.003179797777722,25.000719989632298,25.00163994621153,17.881599481030772,26.82239922154616,
659,24.990558217054698,24.998119929306682,25.00223989965699,24.999779999031993,25.000719989632298,17.881599481030772,26.82239922154616,
660,24.99659976876855,24.997199843182436,25.00131996515384,24.998859974006816,24.999779999031993,17.881599481030772,26.82239922154616,
661,24.995759640387007,24.99629972615947,25.000379997112045,24.997939915121005,24.998859974006816,17.881599481030772,26.82239922154616,
662,24.994919483767095,24.995399576722114,24.99945999416787,24.997019822370827,24.997939915121005,17.881599481030772,26.82239922154616,
663,24.99409930363565,24.994499394866864,24.998539957365512,25.003039815190473,24.997039824747247,17.881599481030772,26.82239922154616,
664,25.000119999712002,24.993599180590216,24.997619886701212,25.00209991180741,25.003039815190473,17.881599481030772,26.82239922154616,
665,24.999259989047676,24.999619997111957,24.996699782171245,25.001179972153313,25.00209991180741,17.881599481030772,26.82239922154616,
666,24.998419950068847,24.99869996619824,25.002719852048095,25.00023999884801,25.001179972153313,17.881599481030772,26.82239922154616,
667,24.997559880916377,24.997779901423247,25.001779936636513,24.999319990751747,25.00023999884801,17.881599481030772,26.82239922154616,
668,24.996719784803766,24.9968798052877,25.00085998520851,24.998399948796724,24.999319990751747,17.881599481030772,26.82239922154616,
669,24.99587966045604,24.995959673515237,24.999919999872,24.997479872979195,24.998399948796724,17.881599481030772,26.82239922154616,
670,25.001899927805486,24.995059511831535,24.9989999799992,24.996559763295426,24.997479872979195,17.881599481030772,26.82239922154616,
671,25.0010399783689,24.994159317728613,24.998079926266335,25.00257986688574,25.003499755034294,17.881599481030772,26.82239922154616,
672,25.000179999352007,25.000199999200007,24.99715983866967,25.00165994489166,25.00255986894142,17.881599481030772,26.82239922154616,
673,24.992458862624943,24.992338826128297,25.003179797777722,25.000719989632298,25.0016199475154,17.881599481030772,26.82239922154616,
674,24.991638601740384,24.970662786558147,25.00223989965699,24.999799999199993,25.00067999075225,17.881599481030772,26.82239922154616,
675,24.990838321272857,24.949088159690326,25.00129996620176,24.998859974006816,24.99975999884799,17.881599481030772,26.82239922154616,
676,24.9968798052877,24.92759515075612,25.000379997112045,24.997959916761207,24.998839973086753,17.881599481030772,26.82239922154616,
677,24.996039686318312,24.906183971054258,24.999439993727858,24.997039824747247,24.9979199134648,17.881599481030772,26.82239922154616,
678,24.995199539111503,24.88487492433908,24.99851995618941,25.00305981275092,24.9969998199784,17.881599481030772,26.82239922154616,
679,24.994359363664433,24.863648163533846,24.997619886701212,25.00211991011962,25.00301981761403,17.881599481030772,26.82239922154616,
680,25.000379997112045,24.842503899566967,25.003619737949943,25.001179972153313,25.0020799134792,17.881599481030772,26.82239922154616,
681,24.99951999539191,24.821462487129963,25.002679856367397,25.00023999884801,25.001139974009185,17.881599481030772,26.82239922154616,
682,24.99867996515016,24.800504027136224,25.001739939452214,24.999319990751747,25.00021999903201,17.881599481030772,26.82239922154616,
683,24.99781990494371,24.77964890792442,25.000819986552443,24.998399948796724,24.999299990199727,17.881599481030772,26.82239922154616,
684,24.99697981756996,24.702854086117256,24.999879999712,24.997479872979195,24.9983799475086,17.881599481030772,26.82239922154616,
685,25.002979822413167,24.626225857812642,24.9989599783671,24.996579766039993,24.997459870954888,17.881599481030772,26.82239922154616,
686,25.00211991011962,24.549745416195258,24.998039923161976,25.00259986481406,25.00345976060113,17.881599481030772,26.82239922154616,
687,25.0012599682496,24.565198961131983,24.997119834092885,25.00165994489166,25.0025198730048,17.881599481030772,26.82239922154616,
688,25.000399996800052,24.58056142564689,25.003139802832763,25.000719989632298,25.00159994880328,17.881599481030772,26.82239922154616,
689,24.999539995767922,24.595853309043783,25.002199903208517,24.999799999199993,25.00065999128823,17.881599481030772,26.82239922154616,
690,25.012376936228993,24.575841796365797,25.0012599682496,25.005799327356044,24.999739998647986,17.881599481030772,26.82239922154616,
691,25.025147352213533,24.4994489733953,25.014175980831347,24.92857797789517,24.922519936796117,17.881599481030772,26.82239922154616,
