digraph G {
    expression_tree -> depth
    depth -> pipelining
    expression_tree -> bounds
    bounds->word_lengths
    word_lengths->codegen
    pipelining->codegen

    expression_tree -> simulation
    simulation -> word_lengths
    
    codegen -> verilog
}
