digraph G {
    a -> apb
    b -> apb
    apb -> apbd
    apbd -> apbpc
    c -> apbpc

    apb [label="+"]
    apbd [label="d", shape=box, width=0, height=0]
    apbpc [label="+"]

    {rank=same; a ; b; c}
}
